^C:\USERS\ALEJANDRO\DESKTOP\AQUARIUM\TEST\TEST.CPP
C:\USERS\ALEJANDRO\DESKTOP\AQUARIUM\TEST\X64\DEBUG\VC142.PDB
C:\USERS\ALEJANDRO\DESKTOP\AQUARIUM\TEST\X64\DEBUG\VC142.IDB
C:\USERS\ALEJANDRO\DESKTOP\AQUARIUM\TEST\X64\DEBUG\TEST.OBJ
